<svg width="41" height="41" viewBox="0 0 41 41" fill="none" xmlns="http://www.w3.org/2000/svg">
<g clip-path="url(#clip0_28_7221)">
<path d="M39.2853 7.4592C38.3481 8.39635 37.4194 9.09928 36.4934 9.62907L31.3709 4.50648C31.9008 3.58053 32.6036 2.65179 33.5408 1.71463L31.8261 0C29.8904 1.93573 28.6247 4.03578 27.9572 6.42018C27.485 8.10647 27.352 9.76 27.2849 11.3718C25.673 11.4391 24.0195 11.5719 22.3331 12.0442C19.9488 12.7118 17.8487 13.9773 15.913 15.9131C13.9772 17.8489 12.7116 19.9489 12.0441 22.3332C11.5719 24.0195 11.4389 25.673 11.3718 27.2849C9.76 27.3521 8.10655 27.485 6.42018 27.9572C4.03578 28.6247 1.93573 29.8903 0 31.8261L1.71471 33.5408C2.62744 32.6281 3.53201 31.9374 4.43377 31.4125L9.58743 36.5662C9.0626 37.4681 8.37177 38.3727 7.45912 39.2854L9.17391 41C11.1096 39.0643 12.3753 36.9642 13.0428 34.5798C13.515 32.8935 13.648 31.24 13.7152 29.6282C15.327 29.5609 16.9806 29.4281 18.6669 28.9558C21.0513 28.2882 23.1514 27.0227 25.0871 25.0869C27.0228 23.1511 28.2885 21.0511 28.956 18.6668C29.4281 16.9805 29.5612 15.327 29.6283 13.7151C31.2401 13.6479 32.8935 13.515 34.5799 13.0429C36.9642 12.3752 39.0643 11.1096 41.0001 9.17383L39.2853 7.4592ZM10.6285 34.1777L6.82242 30.3715C8.29689 29.9218 9.77642 29.7845 11.284 29.716C11.2155 31.2237 11.0782 32.7032 10.6285 34.1777ZM13.803 27.1969C13.8679 25.7675 13.9947 24.3633 14.3911 22.9647L18.0353 26.6089C16.6366 27.0052 15.2324 27.1321 13.803 27.1969ZM20.464 25.6082L15.3918 20.5361C15.7651 19.8657 16.2282 19.1938 16.8038 18.5185L22.4815 24.1962C21.8062 24.7717 21.1345 25.2349 20.464 25.6082ZM24.1962 22.4815L18.5185 16.8038C19.1938 16.2282 19.8656 15.7651 20.5361 15.3918L25.6082 20.4639C25.2349 21.1344 24.7718 21.8062 24.1962 22.4815ZM26.609 18.0353L22.9648 14.3912C24.3634 13.9949 25.7676 13.868 27.1971 13.8031C27.1321 15.2325 27.0053 16.6366 26.609 18.0353ZM29.7161 11.2839C29.7832 9.80621 29.9164 8.35551 30.3451 6.9101L34.0897 10.6548C32.6443 11.0836 31.1937 11.2169 29.7161 11.2839Z" fill="#A0CE6D"/>
</g>
<defs>
<clipPath id="clip0_28_7221">
<rect width="41" height="41" fill="white"/>
</clipPath>
</defs>
</svg>
