<svg width="39" height="39" viewBox="0 0 39 39" fill="none" xmlns="http://www.w3.org/2000/svg">
<path d="M37.4766 10.3594H33.668V10.1348C33.668 9.18533 33.2908 8.27472 32.6194 7.60332C31.948 6.93193 31.0374 6.55474 30.0879 6.55474C29.1384 6.55474 28.2278 6.93193 27.5564 7.60332C26.8851 8.27472 26.5079 9.18533 26.5079 10.1348V11.5838C26.5079 13.4568 24.9531 14.9806 23.0801 14.9806C21.2071 14.9806 19.6524 13.4571 19.6524 11.5838V7.15155C19.6524 5.74751 19.0946 4.40097 18.1018 3.40817C17.109 2.41536 15.7625 1.8576 14.3585 1.8576C12.9544 1.8576 11.6079 2.41536 10.6151 3.40817C9.62226 4.40097 9.06451 5.74751 9.06451 7.15155V8.22656H5.10357C4.94195 8.22656 4.78696 8.29077 4.67268 8.40505C4.5584 8.51933 4.49419 8.67432 4.49419 8.83594V11.1211C4.49419 11.2827 4.5584 11.4377 4.67268 11.552C4.78696 11.6663 4.94195 11.7305 5.10357 11.7305H6.16997V20.5697C4.60432 21.2313 3.26843 22.3398 2.32931 23.7565C1.3902 25.1733 0.889527 26.8354 0.889893 28.5351C0.889893 33.2831 4.78068 37.1458 9.56305 37.1458C14.3047 37.1458 18.1624 33.2831 18.1624 28.5351C18.156 26.7197 17.5641 24.9547 16.4746 23.5025C15.5277 22.2197 14.2591 21.2094 12.7969 20.5736V11.7305H13.8633C14.025 11.7305 14.1799 11.6663 14.2942 11.552C14.4085 11.4377 14.4727 11.2827 14.4727 11.1211V8.83594C14.4727 8.67432 14.4085 8.51933 14.2942 8.40505C14.1799 8.29077 14.025 8.22656 13.8633 8.22656H10.2833V7.15155C10.2833 6.07074 10.7126 5.0342 11.4769 4.26995C12.2411 3.5057 13.2776 3.07636 14.3585 3.07636C15.4393 3.07636 16.4758 3.5057 17.24 4.26995C18.0043 5.0342 18.4336 6.07074 18.4336 7.15155V11.5838C18.4336 14.1288 20.5352 16.1993 23.0801 16.1993C25.6251 16.1993 27.7266 14.1288 27.7266 11.5838V10.1348C27.7266 9.50856 27.9754 8.90795 28.4182 8.46511C28.8611 8.02228 29.4617 7.77349 30.0879 7.77349C30.7142 7.77349 31.3148 8.02228 31.7577 8.46511C32.2005 8.90795 32.4493 9.50856 32.4493 10.1348V10.3594H28.7245C28.5627 10.3576 28.4068 10.4202 28.2911 10.5333C28.1754 10.6464 28.1094 10.8009 28.1075 10.9627V13.2478C28.1089 13.4109 28.1744 13.5668 28.2898 13.682C28.4053 13.7971 28.5614 13.8623 28.7245 13.8633H29.7833V33.8648C29.7833 35.674 31.2876 37.1458 33.0967 37.1458C34.9059 37.1458 36.4102 35.674 36.4102 33.8648V13.8633H37.4766C37.6389 13.862 37.794 13.7965 37.9082 13.6812C38.0224 13.5659 38.0863 13.4101 38.086 13.2478V10.9627C38.0859 10.8829 38.07 10.804 38.0393 10.7305C38.0086 10.6569 37.9636 10.5902 37.9069 10.5341C37.8503 10.478 37.7831 10.4337 37.7092 10.4037C37.6354 10.3737 37.5563 10.3587 37.4766 10.3594ZM9.56305 35.9271C5.45266 35.9271 2.10864 32.6111 2.10864 28.5351C2.10899 28.2721 2.12331 28.0092 2.15153 27.7477C2.63789 27.8151 2.94912 27.967 3.29609 28.1371C3.82266 28.3954 4.41954 28.6882 5.55748 28.6882C6.69541 28.6882 7.29229 28.3954 7.81887 28.1371C8.2855 27.9086 8.68852 27.7106 9.5437 27.7106C10.3989 27.7106 10.802 27.9082 11.2686 28.1371C11.7953 28.3954 12.3922 28.6882 13.5302 28.6882C14.6682 28.6882 15.265 28.3954 15.7917 28.1371C16.1289 27.9718 16.433 27.8232 16.8975 27.7532C16.9278 28.0128 16.9433 28.2738 16.9436 28.5351C16.9429 30.4934 16.1655 32.3715 14.7818 33.7572C13.3982 35.143 11.5213 35.9234 9.56305 35.9271ZM11.9766 21.5582C13.0882 21.9758 14.0884 22.6443 14.8996 23.5114C15.7108 24.3786 16.311 25.4212 16.6536 26.5582C16.0399 26.6592 15.6289 26.8596 15.2552 27.0428C14.7886 27.2714 14.3856 27.4694 13.5303 27.4694C12.6751 27.4694 12.272 27.2714 11.8054 27.0428C11.2787 26.7846 10.6819 26.4919 9.54386 26.4919C8.40585 26.4919 7.80904 26.7846 7.28246 27.0428C6.81584 27.2714 6.41281 27.4694 5.55763 27.4694C4.70245 27.4694 4.2995 27.2714 3.83287 27.0428C3.4482 26.8542 3.02423 26.6468 2.37905 26.5489C2.69291 25.41 3.2749 24.3627 4.07635 23.4947C4.8778 22.6267 5.87541 21.9632 6.98578 21.5597C7.10377 21.5172 7.20578 21.4394 7.27789 21.3368C7.35 21.2342 7.38871 21.1118 7.38872 20.9864V11.7305H11.5782V20.9864C11.5782 21.111 11.6164 21.2326 11.6876 21.3349C11.7589 21.4371 11.8597 21.515 11.9766 21.5582ZM13.254 10.5117H5.71294V9.44531H13.254V10.5117ZM33.0967 35.9271C31.9596 35.9271 31.002 35.002 31.002 33.8648V26.8794C31.1289 26.8948 31.2565 26.903 31.3843 26.9041C31.7677 26.9105 32.1465 26.8196 32.4852 26.6398C32.6572 26.5481 32.8491 26.5001 33.0439 26.5001C33.2388 26.5001 33.4307 26.5481 33.6027 26.6398C33.9438 26.8193 34.3246 26.9102 34.7101 26.9039C34.8714 26.9038 35.0325 26.89 35.1915 26.8624V33.8646C35.1915 35.002 34.2338 35.9271 33.0967 35.9271ZM35.1915 25.5883C35.0409 25.6565 34.8768 25.6896 34.7116 25.6852C34.5148 25.6918 34.32 25.6434 34.1491 25.5455C33.8104 25.3718 33.4352 25.2812 33.0545 25.2812C32.6738 25.2812 32.2986 25.3718 31.9599 25.5455C31.7847 25.6433 31.5862 25.6916 31.3856 25.6852C31.256 25.685 31.127 25.6667 31.0024 25.6308V13.8633H35.1918L35.1915 25.5883ZM36.8672 12.6445H29.3262V11.5781H36.8672V12.6445Z" fill="#A0CE6D" stroke="#A0CE6D"/>
</svg>
