<svg width="63" height="62" viewBox="0 0 63 62" fill="none" xmlns="http://www.w3.org/2000/svg">
<path d="M27.2222 29.5556L2.65375 53.0711C1.18168 54.4801 1.11303 56.8098 2.49959 58.303V58.303C3.90823 59.82 6.28287 59.8994 7.78972 58.4799L31.8889 35.7778L33.0556 34.6111M27.2222 29.5556V29.5556C24.6731 26.794 24.9259 22.4682 27.7794 20.0225L28 19.8333M27.2222 29.5556L33.0556 34.6111M28 19.8333V19.8333C26.5039 18.1235 26.6992 15.5195 28.4336 14.0519L30.3333 12.4444M28 19.8333L42.7778 33.4444M30.3333 12.4444L29.7008 11.8119C28.3319 10.443 28.3319 8.22363 29.7008 6.85473V6.85473C30.9508 5.60472 32.936 5.48112 34.3315 6.56644L35.3889 7.38889M30.3333 12.4444L50.1667 30.7222M35.3889 7.38889L38.2126 4.78238C39.4896 3.60358 41.4427 3.55407 42.7778 4.66667V4.66667M35.3889 7.38889L56 27.2222M42.7778 4.66667V4.66667C45.8718 2.01462 50.4695 2.12901 53.4279 4.93165L58.0053 9.26822C60.7742 11.8914 60.9204 16.2529 58.3333 19.0556V19.0556M42.7778 4.66667L58.3333 19.0556M58.3333 19.0556V19.0556C59.8528 20.575 59.8981 23.0242 58.436 24.5989L56 27.2222M56 27.2222V27.2222C57.2719 28.4942 57.2268 30.5698 55.9008 31.7853L55.8301 31.8501C54.6012 32.9767 52.7192 32.9911 51.4731 31.8835L50.1667 30.7222M50.1667 30.7222L48.4009 32.8091C46.9903 34.4761 44.5248 34.7547 42.7778 33.4444V33.4444M42.7778 33.4444L42.0086 34.1545C39.5253 36.4468 35.7592 36.6389 33.0556 34.6111V34.6111" stroke="#9D5296" stroke-width="3"/>
<path d="M47.5088 46.3969L44.3333 42L41.0151 46.2663C39.79 47.8414 39.8927 50.0756 41.2543 51.5343C42.8978 53.2953 45.7082 53.2469 47.2859 51.4266C48.5181 50.0048 48.6104 47.9221 47.5088 46.3969Z" stroke="#9D5296" stroke-width="3"/>
</svg>
